Building DAG of jobs...
Using shell: /bin/bash
Provided cores: 4
Rules claiming more threads will be scaled down.
Job counts:
	count	jobs
	1	IqTree_Analysis_ML
	1

[Fri Jan 15 10:20:46 2021]
rule IqTree_Analysis_ML:
    input: data/D01/output/sequence_Aligned.fasta, data/D01/output/Iqtree_ML.treels
    output: data/D01/outputsequence_Aligned.fasta.iqtree
    jobid: 9

[Fri Jan 15 10:20:46 2021]
Error in rule IqTree_Analysis_ML:
    jobid: 9
    output: data/D01/outputsequence_Aligned.fasta.iqtree
    shell:
        iqtree -s data/D01/output/sequence_Aligned.fasta -z data/D01/output/Iqtree_ML.treels -n 0 -zb 1000
        (one of the commands exited with non-zero exit code; note that snakemake uses bash strict mode!)

Shutting down, this might take some time.
Exiting because a job execution failed. Look above for error message
Complete log: /home/daniel/Mockup/.snakemake/log/2021-01-15T102046.409595.snakemake.log
