Building DAG of jobs...
Using shell: /bin/bash
Provided cores: 4
Rules claiming more threads will be scaled down.
Job counts:
	count	jobs
	1	IqTree_For_OriginalML_10
	1

[Thu Jan 21 10:36:01 2021]
rule IqTree_For_OriginalML_10:
    input: data/D01/output/sequence_Aligned.fasta, data/D01/output/Trees_Original/RAxML_bipartitions.MLTree
    output: data/D01/output/IqtreeML/10/sequence_Aligned.fasta.treefile
    jobid: 0

Shutting down, this might take some time.
Exiting because a job execution failed. Look above for error message
Complete log: /home/daniel/Mockup/.snakemake/log/2021-01-21T103601.110260.snakemake.log
